{
    "project":{
        "boards":[
            {
                "board_id":"1",
                "board_name":"pyboard",
                "board_serial_port":"/dev/usbmodem611"
            },
            {
                "board_id":"2",
                "board_name":"pyboard",
                "board_serial_port":"/dev/usbmodem281"
            },
            {
                "board_id":"3",
                "board_name":"pyboard",
                "board_serial_port":"/dev/usbmodem439"
            }
        ],
        "experiments":[
            {
                "name":"FOXp1_group_1",
                "setups":[
                    {
                        "boards":[
                            [
                                "2",
                                "blinker"
                            ],
                            [
                                "3",
                                "poke"
                            ]
                        ],
                        "setup_id":"1",
                        "subjects":[
                            "m129",
                            "m130",
                            "m291"
                        ]
                    },
                    {
                        "boards":[
                            [
                                "1",
                                "blinker"
                            ],
                            [
                                "3",
                                "poke"
                            ]
                        ],
                        "setup_id":"2",
                        "subjects":[
                            "m291",
                            "m999"
                        ]
                    }
                ]
            },
            {
                "name":"FOXp2_group_1",
                "setups":[]
            }
        ],
        "subjects":[
            {
                "subject_id":"m129"
            },
            {
                "subject_id":"m130"
            },
            {
                "subject_id":"m291"
            },
            {
                "subject_id":"m539"
            },
            {
                "subject_id":"m937"
            },
            {
                "subject_id":"m411"
            },
            {
                "subject_id":"m999"
            }
        ]
    }
}