{
    "project":{
        "boards":[
            {
                "board_id":"1",
                "board_name":"pyboard",
                "board_serial_port":"/dev/usbmodem611"
            },
            {
                "board_id":"2",
                "board_name":"pyboard",
                "board_serial_port":"/dev/usbmodem281"
            },
            {
                "board_id":"3",
                "board_name":"pyboard",
                "board_serial_port":"/dev/usbmodem439"
            }
        ],
        "INVALIDexperimentINVALID":[],
        "subjects":[
            {
                "subject_id":"m129"
            },
        ]
    }
}